C101.txt; 828,94; 3;   10
C101.TXT; 828,94; 4;   10
C101.TXT; 828,94; 4;   10
C103.TXT; 843,73; 4;   10
C101.TXT; 828,94; 4;   10
RC21010.TXT; 28995,78; 59;   19
RC21010.TXT; 28748,20; 17;   19
RC201.TXT; 1435,96; 4;    8
C101.txt; 828,94; 16;   10
C101.txt; 828,94; 15;   10
C101.txt; 828,94; 15;   10
C101.txt; 828,94; 14;   10
C101.txt; 828,94; 14;   10
C101.txt; 828,94; 15;   10
RC208.txt; 855,55; 14;    4
RC208.txt; 894,64; 15;    4
RC208.txt; 883,22; 15;    4
RC208.txt; 890,91; 15;    4
RC208.txt; 868,19; 16;    4
RC208.txt; 855,55; 16;    4
C101.txt; 828,94; 14;   10
C101.txt; 828,94; 14;   10
C101.TXT; 828,94; 5;   10
RC201.TXT; 1389,00; 5;    8
RC208.TXT; 839,23; 5;    4
RC208.TXT; 842,43; 45;    4
RC201.TXT; 1323,15; 38;    9
RC208.txt; 917,12; 3;    4
RC208.txt; 901,68; 3;    4
RC208.txt; 896,15; 3;    4
RC208.txt; 923,77; 3;    4
RC208.txt; 945,47; 3;    4
RC208.txt; 1023,40; 35;    7
RC208.txt; 941,80; 1;    6
RC208.txt; 944,00; 57;    7
RC208.txt; 1091,00; 35;    8
RC208.txt; 1189,70; 35;    9
RC208.txt; 1387,70; 42;   12
RC208.txt; 917,50; 40;    7
RC208.txt; 901,30; 4;    7
RC208.txt; Infinity; 35;    6
RC208.txt; 894,50; 1:4;    5
RC208.txt; Infinity; 2:59;    7
RC208.txt; 862,30; 3:13;    5
RC208.txt; 837,40; 3:8;    6
RC208.txt; 829,60; 3:10;    6
RC208.txt; 819,20; 3:9;    5
RC208.txt; 836,40; 3:10;    6
RC208.txt; 843,80; 3:6;    6
RC208.txt; 853,70; 8:8;    6
RC208.txt; Infinity; 2:57;    6
RC208.txt; Infinity; 2:57;    7
RC208.txt; 821,80; 3:41;    5
RC208.txt; 801,00; 3:53;    5
RC208.txt; 822,80; 3:41;    6
RC208.txt; 822,20; 6:47;    5
RC208.txt; 818,30; 6:34;    6
RC208.txt; 832,60; 6:33;    5
C201.txt; 627,00; 7:12;    4
C201.txt; 589,10; 7:11;    3
RC208.txt; 810,60; 7:6;    4
RC208.txt; 804,00; 390;    4
RC208.txt; 784,50; 377;    5
RC208.txt; 845,80; 228;    5
RC208.txt; 834,30; 244;    4
RC208.txt; 827,70; 230;    6
RC103.txt; 1336,80; 229;   13
RC103.txt; 1348,40; 732;   13
RC103.txt; 1287,50; 1225;   12
RC103.txt; 1330,80; 704;   13
RC103.txt; 1323,80; 747;   12
RC103.txt; 1346,50; 371;   13
C101.txt; 827,30; 372;   10
